    __ ___
   / _/ _/
  / _/ _/
 /__/_/

    __ ___
   / _/ _/\
  / _/ _/\/
 /__/_/\\/
 \__\_\/

    ________
   / __/ __/\
  / __/ __/\/
 /___/_/\_\/
 \___\_\/

    ___ ____
   / __/ __/\
  / __/ __/\/
 /___/_/_/\/
 \___\_\_\/

    __________
   /  __/  __/\
  /  __/  __/\/
 /____/__/\_\/
 \____\__\/


  ___ ___
 \  _\  _\
  \  _\  _\
   \___\_\

  ________
/ \  _\  _\
 \ \  _\  _\
  \ \___\_\
   \/___/_/

   _____________________   ___   _________________________  ____
  /    /  __/  __/  /  /  /  /__/  /  __/  o /  __/    /  |/   /
 / o  /__  /  /_/  /  /  /  /  |  /  __/  O /  |_/ O  /       /
/_/|_/____/____/__/__/  /____/___/____/____/____/_/|_/__/_/__/

   _____________________   ___   _________________________  ____
  /    /  __/  __/  /  /  /  /_ /  /  __/  o /  __/    /  |/   /
 / o  /__  /  /_/  /  /  /  /  |  /  __/  O /  |_/ O  /       /
/_/|_/____/____/__/__/   \___/___/____/____/____/_/|_/__/_/__/

   ___  ________________    ___   ____________ ________  __  ____
  /   |/  __/  __/  /  /\  /  /_ /  /  __/  o V  __/   \/  |/   /\
 / O  /__  /  /_/  /  / / /  /  |  /  __/  O /  /_/ O  /       / /
/_/|_/____/____/__/__/ /  \___/___/____/____/____/_/|_/__/_/__/ /
\_\\_\____\____\__\__\/    \__\\__\____\____\____\_\\_\__\_\__\/  

   ___  ________________   _  _  __________  ________  __  ____
  /   |/  __/  __/  /  /\ | |/ |/ /  __/ , \/  __/   \/  |/   /\
 / ^  /__  /  /_/  /  / / |      /  __/ ,  /  /_/ ^  /       / /
/_/|_/____/____/__/__/ /  |__/__/____/____/____/_/|_/__/_/__/ /
\_\\_\____\____\__\__\/   \__\\__\____\___\____\_\\_\__\_\__\/  


   ___      ___      ____     ____      _____    _____    _____
  /   |\   / , \    /  __/\  /    \    /  __/\  /  __/\  / ___/\
 / ^  /\  / ,  /\  /  /__\/ /  O  /\  /  __/\/ /  __/\/ / /,-,\/
/_/|_/ / /____/ / /____/\  /_____/ / /____/\/ /__/\_\/ /____/ /
\_\\_\/  \____\/  \____\/  \_____\/  \____\/  \__\/    \____\/

   __  __    ___      ___    ___ __    ___      __  ____ 
  / /_/ /\  /  /\    /  /\  /  / _/\  /  /\    /  |/   /\
 / __  / / /  / / __/  / / /    \_\/ /  /_/   /       / /
/_/ /_/ / /__/ / /____/ / /__/\_/\  /____/\  /__/_/__/ / 
\_\ \_\/  \__\/  \____\/  \__\/\_\  \____\/  \__\_\__\/  

   __  ___    ____      ___     ____     ___       _____
  /  \/  /\  /    \    / , \   /    \   / , \     /  __/\
 /      / / /  O  /\  /  __/\ /  O  /  /    /\   /__  /\/
/__/\__/ /  \____/ / /__/\__/ \____ \ /__/\_\/  /____/ /
\__\/\_\/    \___ /  \__\/     \___\/ \__\/\_\  \____\/

   ______    ___  ___    _  __    _  _  __   __  __
  /_   _/\  /  / /  /\  | |/ /\  | |/ |/ /\  \ \/ /\
  \/  /\\/ /  /_/  / /  |   / /  |      / /   )  ( /
  /__/ /   \______/ /   |__/ /   |__/__/ /   /_/\_\
  \__\/     \______/    \__\/    \__\\_\/    \_\/\_\
 
    _  __     _____
   | |/ /\   /__  /\
   |   / /  /  __/ /
   /__/ /  /____/ /
   \__\/   \____\/
  __  __
 |  |/ /
 /    /
/__/__|
\__\__\
   ________
  /__   __/\
  \_/  /\_\/
   /__/ /
   \__\/
   __ __
  /  / /
 /    /
/__/\_\
   __  __
  /  / _/
 /    /
/__/\__\

   __  __
  /  / _/
 /    \
/__/\__|
   __  __ ___        ___  ____  _  _  __  __
  /  / _//   | ____ / , \/    \| |/ |/ / / /
 /    \ /  ^ |/___//  __/  O  /|      / /_/
/__/\__|__/__|    /__/  \____/ |__/__/ /_/
   __  __ ___        ___  ____  _  _  __  __
  /  / _//   | ____ / , \/    \| |/ |/ /\/ /\
 /    \ /  ^ |/___//  __/  O  /|      / /_/ /
/__/\__|__/__|\___/__/ _\____/ |__/__/ /_/\/
\__\/\__\__\__\   \__\/  \___/ \__\__\/\_\/   
                            
   __  __ ________         ___  ____  _  _  __  __ 
  /  / _//  __/  , \ ____ / , \/    \| |/ |/ /\/ /\
 /    \ /  __/     //___//  __/  O  /|      / /_/ /
/__/\__|____/__/\__\\___/__/ _\____/ |__/__/ /_/\/ 
\__\/\__\___\__\/\__\   \__\/  \__ _/ \__\__\/\_\/  

   __  __ ________         ___  __   ____  ____  ________  __
  /  / _//  __/  , \ ____ / , \/  /\/    \/    \/  /  __/\/ /\
 /    \ /  __/     //___// ,  /  /_/  O  /  O  /  /  __/\/_/ / 
/__/\__|____/__/\__\\___/____/____/\____/\____/__/____/\/_/\/
\__\/\__\___\__\/\__\   \__\/\____\/\____/\___\__\____\/\_\/


SKZZZTssTKHHHKHHhhh
   _______  __ __________________________________  ____  ____  __
  /  __/  / _//__  /__  /_   _/  __/  __/_   _/  / _/ /_/ / /_/ /\
 /__  /    \ /  __/  __/ /  //__  /__  /\/  //    \/ __  / __  /_/_
/____/__/\__|____/____/ /__//____/____/ /__//__/\__|/ /_/_/ /_/_/_/\
\____\__\/\_\____\____\/\__\\____\____ /\__\\__\/\__\/\_\_\/\_\_\_\/

        _
    ,\_| |_/\
    \       /
   _/       \_
  [_   (O)   _]
    \       /
    / _   _ \
    ~/ |_| \/

    ___
   / _ \
  | ( ) |
   \/ \/
   O S S
             _
 /          /          __
 \  _  _   /  __  __/ /_
 / /  /_  /_ /_/ /_/ /_

  __  ___       ___ ___ ___
 /_  /  / /  / /   /   /_
__/ /__/ /__/ /   /__ /__
  __  ___  _    ___
 /   /  / / \  /_
/__ /__/ /__/ /__

 __ _ __  __ __ _  __
_\ / /_  /_ /_//_|/_-

 __ __    _ __ __   __ __ _  __
_\ /_//_// /_ /_-  /_ /_//_|/_-
 __ __  _  __
/  /_- /-'/_/
 __   __
/_r / /
 __   _  __  _   __  __  __                         __
/-/ /_- /_  /_\ /_- /-  /_r /-/ / _/ /< /_ /\\ /\/ /_/
 _   __  __   _ __                    __
/-' /,/ /   _\  /  /_/ |/ ||/ ,\' '/   /_
   __   _      _  __ __  _   _
 /  /_ -_/ '/ _\ /_\  / /=/ '/
__  _  _  __ _   __ __                         __
\-\ \= \_ \/ \-_ \- \r \-\ \ _\ \< \_ |\\ |\| \_\
__ __  _  _ __                    __
\' \_L \ _\  \  \_\ \| \\| ,\' '/  /_  
